<?xml version="1.0" encoding="UTF-8"?>
<svg width="15px" height="25px" viewBox="0 0 15 25" version="1.1" xmlns="http://www.w3.org/2000/svg" xmlns:xlink="http://www.w3.org/1999/xlink">
    <!-- Generator: Sketch 49 (51002) - http://www.bohemiancoding.com/sketch -->
    <title>Shape</title>
    <desc>Created with Sketch.</desc>
    <defs></defs>
    <g id="Page-1" stroke="none" stroke-width="1" fill="none" fill-rule="evenodd" opacity="0.636548913">
        <g id="Medical-Home" transform="translate(-1435.000000, -3192.000000)" fill="#494949" fill-rule="nonzero">
            <g id="Group-28" transform="translate(150.000000, 3192.000000)">
                <g id="ic-keyboard-arrow-right-48px" transform="translate(1285.000000, 0.000000)">
                    <polygon id="Shape" points="0.17 21.92 9.34 12.75 0.17 3.58 3 0.75 15 12.75 3 24.75"></polygon>
                </g>
            </g>
        </g>
    </g>
</svg>